\\192.168.16.12\Backup\
127.0.0.1
ALG0101
RWF
CnOM21
RWF 
127.0.0.1
HOTELgalaxy
192.168.1.71
ALG0101 
127.0.0.1
PMSS_BETAsaH1
192.168.1.97
ALG0101
172.16.0.30
kipharmaV4
127.0.0.1
PMSS_BETAsaH1
